0 0 B
0.0333333 0 B
0.0666667 0 B
0.1 0 B
0.133333 0 B
0.166667 0 B
0.2 0 B
0.233333 0 B
0.266667 0 B
0.3 0 B
0.333333 0 B
0.366667 0 B
0.4 0 B
0.433333 0 B
0.466667 0 B
0.5 0 B
0.533333 0 B
0.566667 0 B
0.6 0 B
0.633333 0 B
0.666667 0 B
0.7 0 B
0.733333 0 B
0.766667 0 B
0.8 0 B
0.833333 0 B
0.866667 0 B
0.9 0 B
0.933333 0 B
0.966667 0 B
1 0 B
1.03333 0 B
1.06667 0 B
1.1 0 B
1.13333 0 B
1.16667 0 B
1.2 0 B
1.23333 0 B
1.26667 0 B
1.3 0 B
1.33333 0 B
1.36667 0 B
1.4 0 B
1.43333 0 B
1.46667 0 B
1.5 0 B
1.53333 0 B
1.56667 0 B
1.6 0 B
1.63333 0 B
1.66667 0 B
1.7 0 B
1.73333 0 B
1.76667 0 B
1.8 0 B
1.83333 0 B
1.86667 0 B
1.9 0 B
1.93333 0 B
1.96667 0 B
2 0 B
0 0.0333333 B
0.0333333 0.0333333
0.0666667 0.0333333
0.1 0.0333333
0.133333 0.0333333
0.166667 0.0333333
0.2 0.0333333
0.233333 0.0333333
0.266667 0.0333333
0.3 0.0333333
0.333333 0.0333333
0.366667 0.0333333
0.4 0.0333333
0.433333 0.0333333
0.466667 0.0333333
0.5 0.0333333
0.533333 0.0333333
0.566667 0.0333333
0.6 0.0333333
0.633333 0.0333333
0.666667 0.0333333
0.7 0.0333333
0.733333 0.0333333
0.766667 0.0333333
0.8 0.0333333
0.833333 0.0333333
0.866667 0.0333333
0.9 0.0333333
0.933333 0.0333333
0.966667 0.0333333
1 0.0333333
1.03333 0.0333333
1.06667 0.0333333
1.1 0.0333333
1.13333 0.0333333
1.16667 0.0333333
1.2 0.0333333
1.23333 0.0333333
1.26667 0.0333333
1.3 0.0333333
1.33333 0.0333333
1.36667 0.0333333
1.4 0.0333333
1.43333 0.0333333
1.46667 0.0333333
1.5 0.0333333
1.53333 0.0333333
1.56667 0.0333333
1.6 0.0333333
1.63333 0.0333333
1.66667 0.0333333
1.7 0.0333333
1.73333 0.0333333
1.76667 0.0333333
1.8 0.0333333
1.83333 0.0333333
1.86667 0.0333333
1.9 0.0333333
1.93333 0.0333333
1.96667 0.0333333
2 0.0333333 B
0 0.0666667 B
0.0333333 0.0666667
0.0666667 0.0666667
0.1 0.0666667
0.133333 0.0666667
0.166667 0.0666667
0.2 0.0666667
0.233333 0.0666667
0.266667 0.0666667
0.3 0.0666667
0.333333 0.0666667
0.366667 0.0666667
0.4 0.0666667
0.433333 0.0666667
0.466667 0.0666667
0.5 0.0666667
0.533333 0.0666667
0.566667 0.0666667
0.6 0.0666667
0.633333 0.0666667
0.666667 0.0666667
0.7 0.0666667
0.733333 0.0666667
0.766667 0.0666667
0.8 0.0666667
0.833333 0.0666667
0.866667 0.0666667
0.9 0.0666667
0.933333 0.0666667
0.966667 0.0666667
1 0.0666667
1.03333 0.0666667
1.06667 0.0666667
1.1 0.0666667
1.13333 0.0666667
1.16667 0.0666667
1.2 0.0666667
1.23333 0.0666667
1.26667 0.0666667
1.3 0.0666667
1.33333 0.0666667
1.36667 0.0666667
1.4 0.0666667
1.43333 0.0666667
1.46667 0.0666667
1.5 0.0666667
1.53333 0.0666667
1.56667 0.0666667
1.6 0.0666667
1.63333 0.0666667
1.66667 0.0666667
1.7 0.0666667
1.73333 0.0666667
1.76667 0.0666667
1.8 0.0666667
1.83333 0.0666667
1.86667 0.0666667
1.9 0.0666667
1.93333 0.0666667
1.96667 0.0666667
2 0.0666667 B
0 0.1 B
0.0333333 0.1
0.0666667 0.1
0.1 0.1
0.133333 0.1
0.166667 0.1
0.2 0.1
0.233333 0.1
0.266667 0.1
0.3 0.1
0.333333 0.1
0.366667 0.1
0.4 0.1
0.433333 0.1
0.466667 0.1
0.5 0.1
0.533333 0.1
0.566667 0.1
0.6 0.1
0.633333 0.1
0.666667 0.1
0.7 0.1
0.733333 0.1
0.766667 0.1
0.8 0.1
0.833333 0.1
0.866667 0.1
0.9 0.1
0.933333 0.1
0.966667 0.1
1 0.1
1.03333 0.1
1.06667 0.1
1.1 0.1
1.13333 0.1
1.16667 0.1
1.2 0.1
1.23333 0.1
1.26667 0.1
1.3 0.1
1.33333 0.1
1.36667 0.1
1.4 0.1
1.43333 0.1
1.46667 0.1
1.5 0.1
1.53333 0.1
1.56667 0.1
1.6 0.1
1.63333 0.1
1.66667 0.1
1.7 0.1
1.73333 0.1
1.76667 0.1
1.8 0.1
1.83333 0.1
1.86667 0.1
1.9 0.1
1.93333 0.1
1.96667 0.1
2 0.1 B
0 0.133333 B
0.0333333 0.133333
0.0666667 0.133333
0.1 0.133333
0.133333 0.133333
0.166667 0.133333
0.2 0.133333
0.233333 0.133333
0.266667 0.133333
0.3 0.133333
0.333333 0.133333
0.366667 0.133333
0.4 0.133333
0.433333 0.133333
0.466667 0.133333
0.5 0.133333
0.533333 0.133333
0.566667 0.133333
0.6 0.133333
0.633333 0.133333
0.666667 0.133333
0.7 0.133333
0.733333 0.133333
0.766667 0.133333
0.8 0.133333
0.833333 0.133333
0.866667 0.133333
0.9 0.133333
0.933333 0.133333
0.966667 0.133333
1 0.133333
1.03333 0.133333
1.06667 0.133333
1.1 0.133333
1.13333 0.133333
1.16667 0.133333
1.2 0.133333
1.23333 0.133333
1.26667 0.133333
1.3 0.133333
1.33333 0.133333
1.36667 0.133333
1.4 0.133333
1.43333 0.133333
1.46667 0.133333
1.5 0.133333
1.53333 0.133333
1.56667 0.133333
1.6 0.133333
1.63333 0.133333
1.66667 0.133333
1.7 0.133333
1.73333 0.133333
1.76667 0.133333
1.8 0.133333
1.83333 0.133333
1.86667 0.133333
1.9 0.133333
1.93333 0.133333
1.96667 0.133333
2 0.133333 B
0 0.166667 B
0.0333333 0.166667
0.0666667 0.166667
0.1 0.166667
0.133333 0.166667
0.166667 0.166667
0.2 0.166667
0.233333 0.166667
0.266667 0.166667
0.3 0.166667
0.333333 0.166667
0.366667 0.166667
0.4 0.166667
0.433333 0.166667
0.466667 0.166667
0.5 0.166667
0.533333 0.166667
0.566667 0.166667
0.6 0.166667
0.633333 0.166667
0.666667 0.166667
0.7 0.166667
0.733333 0.166667
0.766667 0.166667
0.8 0.166667
0.833333 0.166667
0.866667 0.166667
0.9 0.166667
0.933333 0.166667
0.966667 0.166667
1 0.166667
1.03333 0.166667
1.06667 0.166667
1.1 0.166667
1.13333 0.166667
1.16667 0.166667
1.2 0.166667
1.23333 0.166667
1.26667 0.166667
1.3 0.166667
1.33333 0.166667
1.36667 0.166667
1.4 0.166667
1.43333 0.166667
1.46667 0.166667
1.5 0.166667
1.53333 0.166667
1.56667 0.166667
1.6 0.166667
1.63333 0.166667
1.66667 0.166667
1.7 0.166667
1.73333 0.166667
1.76667 0.166667
1.8 0.166667
1.83333 0.166667
1.86667 0.166667
1.9 0.166667
1.93333 0.166667
1.96667 0.166667
2 0.166667 B
0 0.2 B
0.0333333 0.2
0.0666667 0.2
0.1 0.2
0.133333 0.2
0.166667 0.2
0.2 0.2
0.233333 0.2
0.266667 0.2
0.3 0.2
0.333333 0.2
0.366667 0.2
0.4 0.2
0.433333 0.2
0.466667 0.2
0.5 0.2
0.533333 0.2
0.566667 0.2
0.6 0.2
0.633333 0.2
0.666667 0.2
0.7 0.2
0.733333 0.2
0.766667 0.2
0.8 0.2
0.833333 0.2
0.866667 0.2
0.9 0.2
0.933333 0.2
0.966667 0.2
1 0.2
1.03333 0.2
1.06667 0.2
1.1 0.2
1.13333 0.2
1.16667 0.2
1.2 0.2
1.23333 0.2
1.26667 0.2
1.3 0.2
1.33333 0.2
1.36667 0.2
1.4 0.2
1.43333 0.2
1.46667 0.2
1.5 0.2
1.53333 0.2
1.56667 0.2
1.6 0.2
1.63333 0.2
1.66667 0.2
1.7 0.2
1.73333 0.2
1.76667 0.2
1.8 0.2
1.83333 0.2
1.86667 0.2
1.9 0.2
1.93333 0.2
1.96667 0.2
2 0.2 B
0 0.233333 B
0.0333333 0.233333
0.0666667 0.233333
0.1 0.233333
0.133333 0.233333
0.166667 0.233333
0.2 0.233333
0.233333 0.233333
0.266667 0.233333
0.3 0.233333
0.333333 0.233333
0.366667 0.233333
0.4 0.233333
0.433333 0.233333
0.466667 0.233333
0.5 0.233333
0.533333 0.233333
0.566667 0.233333
0.6 0.233333
0.633333 0.233333
0.666667 0.233333
0.7 0.233333
0.733333 0.233333
0.766667 0.233333
0.8 0.233333
0.833333 0.233333
0.866667 0.233333
0.9 0.233333
0.933333 0.233333
0.966667 0.233333
1 0.233333
1.03333 0.233333
1.06667 0.233333
1.1 0.233333
1.13333 0.233333
1.16667 0.233333
1.2 0.233333
1.23333 0.233333
1.26667 0.233333
1.3 0.233333
1.33333 0.233333
1.36667 0.233333
1.4 0.233333
1.43333 0.233333
1.46667 0.233333
1.5 0.233333
1.53333 0.233333
1.56667 0.233333
1.6 0.233333
1.63333 0.233333
1.66667 0.233333
1.7 0.233333
1.73333 0.233333
1.76667 0.233333
1.8 0.233333
1.83333 0.233333
1.86667 0.233333
1.9 0.233333
1.93333 0.233333
1.96667 0.233333
2 0.233333 B
0 0.266667 B
0.0333333 0.266667
0.0666667 0.266667
0.1 0.266667
0.133333 0.266667
0.166667 0.266667
0.2 0.266667
0.233333 0.266667
0.266667 0.266667
0.3 0.266667
0.333333 0.266667
0.366667 0.266667
0.4 0.266667
0.433333 0.266667
0.466667 0.266667
0.5 0.266667
0.533333 0.266667
0.566667 0.266667
0.6 0.266667
0.633333 0.266667
0.666667 0.266667
0.7 0.266667
0.733333 0.266667
0.766667 0.266667
0.8 0.266667
0.833333 0.266667
0.866667 0.266667
0.9 0.266667
0.933333 0.266667
0.966667 0.266667
1 0.266667
1.03333 0.266667
1.06667 0.266667
1.1 0.266667
1.13333 0.266667
1.16667 0.266667
1.2 0.266667
1.23333 0.266667
1.26667 0.266667
1.3 0.266667
1.33333 0.266667
1.36667 0.266667
1.4 0.266667
1.43333 0.266667
1.46667 0.266667
1.5 0.266667
1.53333 0.266667
1.56667 0.266667
1.6 0.266667
1.63333 0.266667
1.66667 0.266667
1.7 0.266667
1.73333 0.266667
1.76667 0.266667
1.8 0.266667
1.83333 0.266667
1.86667 0.266667
1.9 0.266667
1.93333 0.266667
1.96667 0.266667
2 0.266667 B
0 0.3 B
0.0333333 0.3
0.0666667 0.3
0.1 0.3
0.133333 0.3
0.166667 0.3
0.2 0.3
0.233333 0.3
0.266667 0.3
0.3 0.3
0.333333 0.3
0.366667 0.3
0.4 0.3
0.433333 0.3
0.466667 0.3
0.5 0.3
0.533333 0.3
0.566667 0.3
0.6 0.3
0.633333 0.3
0.666667 0.3
0.7 0.3
0.733333 0.3
0.766667 0.3
0.8 0.3
0.833333 0.3
0.866667 0.3
0.9 0.3
0.933333 0.3
0.966667 0.3
1 0.3
1.03333 0.3
1.06667 0.3
1.1 0.3
1.13333 0.3
1.16667 0.3
1.2 0.3
1.23333 0.3
1.26667 0.3
1.3 0.3
1.33333 0.3
1.36667 0.3
1.4 0.3
1.43333 0.3
1.46667 0.3
1.5 0.3
1.53333 0.3
1.56667 0.3
1.6 0.3
1.63333 0.3
1.66667 0.3
1.7 0.3
1.73333 0.3
1.76667 0.3
1.8 0.3
1.83333 0.3
1.86667 0.3
1.9 0.3
1.93333 0.3
1.96667 0.3
2 0.3 B
0 0.333333 B
0.0333333 0.333333
0.0666667 0.333333
0.1 0.333333
0.133333 0.333333
0.166667 0.333333
0.2 0.333333
0.233333 0.333333
0.266667 0.333333
0.3 0.333333
0.333333 0.333333
0.366667 0.333333
0.4 0.333333
0.433333 0.333333
0.466667 0.333333
0.5 0.333333
0.533333 0.333333
0.566667 0.333333
0.6 0.333333
0.633333 0.333333
0.666667 0.333333
0.7 0.333333
0.733333 0.333333
0.766667 0.333333
0.8 0.333333
0.833333 0.333333
0.866667 0.333333
0.9 0.333333
0.933333 0.333333
0.966667 0.333333
1 0.333333
1.03333 0.333333
1.06667 0.333333
1.1 0.333333
1.13333 0.333333
1.16667 0.333333
1.2 0.333333
1.23333 0.333333
1.26667 0.333333
1.3 0.333333
1.33333 0.333333
1.36667 0.333333
1.4 0.333333
1.43333 0.333333
1.46667 0.333333
1.5 0.333333
1.53333 0.333333
1.56667 0.333333
1.6 0.333333
1.63333 0.333333
1.66667 0.333333
1.7 0.333333
1.73333 0.333333
1.76667 0.333333
1.8 0.333333
1.83333 0.333333
1.86667 0.333333
1.9 0.333333
1.93333 0.333333
1.96667 0.333333
2 0.333333 B
0 0.366667 B
0.0333333 0.366667
0.0666667 0.366667
0.1 0.366667
0.133333 0.366667
0.166667 0.366667
0.2 0.366667
0.233333 0.366667
0.266667 0.366667
0.3 0.366667
0.333333 0.366667
0.366667 0.366667
0.4 0.366667
0.433333 0.366667
0.466667 0.366667
0.5 0.366667
0.533333 0.366667
0.566667 0.366667
0.6 0.366667
0.633333 0.366667
0.666667 0.366667
0.7 0.366667
0.733333 0.366667
0.766667 0.366667
0.8 0.366667
0.833333 0.366667
0.866667 0.366667
0.9 0.366667
0.933333 0.366667
0.966667 0.366667
1 0.366667
1.03333 0.366667
1.06667 0.366667
1.1 0.366667
1.13333 0.366667
1.16667 0.366667
1.2 0.366667
1.23333 0.366667
1.26667 0.366667
1.3 0.366667
1.33333 0.366667
1.36667 0.366667
1.4 0.366667
1.43333 0.366667
1.46667 0.366667
1.5 0.366667
1.53333 0.366667
1.56667 0.366667
1.6 0.366667
1.63333 0.366667
1.66667 0.366667
1.7 0.366667
1.73333 0.366667
1.76667 0.366667
1.8 0.366667
1.83333 0.366667
1.86667 0.366667
1.9 0.366667
1.93333 0.366667
1.96667 0.366667
2 0.366667 B
0 0.4 B
0.0333333 0.4
0.0666667 0.4
0.1 0.4
0.133333 0.4
0.166667 0.4
0.2 0.4
0.233333 0.4
0.266667 0.4
0.3 0.4
0.333333 0.4
0.366667 0.4
0.4 0.4
0.433333 0.4
0.466667 0.4
0.5 0.4
0.533333 0.4
0.566667 0.4
0.6 0.4
0.633333 0.4
0.666667 0.4
0.7 0.4
0.733333 0.4
0.766667 0.4
0.8 0.4
0.833333 0.4
0.866667 0.4
0.9 0.4
0.933333 0.4
0.966667 0.4
1 0.4
1.03333 0.4
1.06667 0.4
1.1 0.4
1.13333 0.4
1.16667 0.4
1.2 0.4
1.23333 0.4
1.26667 0.4
1.3 0.4
1.33333 0.4
1.36667 0.4
1.4 0.4
1.43333 0.4
1.46667 0.4
1.5 0.4
1.53333 0.4
1.56667 0.4
1.6 0.4
1.63333 0.4
1.66667 0.4
1.7 0.4
1.73333 0.4
1.76667 0.4
1.8 0.4
1.83333 0.4
1.86667 0.4
1.9 0.4
1.93333 0.4
1.96667 0.4
2 0.4 B
0 0.433333 B
0.0333333 0.433333
0.0666667 0.433333
0.1 0.433333
0.133333 0.433333
0.166667 0.433333
0.2 0.433333
0.233333 0.433333
0.266667 0.433333
0.3 0.433333
0.333333 0.433333
0.366667 0.433333
0.4 0.433333
0.433333 0.433333
0.466667 0.433333
0.5 0.433333
0.533333 0.433333
0.566667 0.433333
0.6 0.433333
0.633333 0.433333
0.666667 0.433333
0.7 0.433333
0.733333 0.433333
0.766667 0.433333
0.8 0.433333
0.833333 0.433333
0.866667 0.433333
0.9 0.433333
0.933333 0.433333
0.966667 0.433333
1 0.433333
1.03333 0.433333
1.06667 0.433333
1.1 0.433333
1.13333 0.433333
1.16667 0.433333
1.2 0.433333
1.23333 0.433333
1.26667 0.433333
1.3 0.433333
1.33333 0.433333
1.36667 0.433333
1.4 0.433333
1.43333 0.433333
1.46667 0.433333
1.5 0.433333
1.53333 0.433333
1.56667 0.433333
1.6 0.433333
1.63333 0.433333
1.66667 0.433333
1.7 0.433333
1.73333 0.433333
1.76667 0.433333
1.8 0.433333
1.83333 0.433333
1.86667 0.433333
1.9 0.433333
1.93333 0.433333
1.96667 0.433333
2 0.433333 B
0 0.466667 B
0.0333333 0.466667
0.0666667 0.466667
0.1 0.466667
0.133333 0.466667
0.166667 0.466667
0.2 0.466667
0.233333 0.466667
0.266667 0.466667
0.3 0.466667
0.333333 0.466667
0.366667 0.466667
0.4 0.466667
0.433333 0.466667
0.466667 0.466667
0.5 0.466667
0.533333 0.466667
0.566667 0.466667
0.6 0.466667
0.633333 0.466667
0.666667 0.466667
0.7 0.466667
0.733333 0.466667
0.766667 0.466667
0.8 0.466667
0.833333 0.466667
0.866667 0.466667
0.9 0.466667
0.933333 0.466667
0.966667 0.466667
1 0.466667
1.03333 0.466667
1.06667 0.466667
1.1 0.466667
1.13333 0.466667
1.16667 0.466667
1.2 0.466667
1.23333 0.466667
1.26667 0.466667
1.3 0.466667
1.33333 0.466667
1.36667 0.466667
1.4 0.466667
1.43333 0.466667
1.46667 0.466667
1.5 0.466667
1.53333 0.466667
1.56667 0.466667
1.6 0.466667
1.63333 0.466667
1.66667 0.466667
1.7 0.466667
1.73333 0.466667
1.76667 0.466667
1.8 0.466667
1.83333 0.466667
1.86667 0.466667
1.9 0.466667
1.93333 0.466667
1.96667 0.466667
2 0.466667 B
0 0.5 B
0.0333333 0.5
0.0666667 0.5
0.1 0.5
0.133333 0.5
0.166667 0.5
0.2 0.5
0.233333 0.5
0.266667 0.5
0.3 0.5
0.333333 0.5
0.366667 0.5
0.4 0.5
0.433333 0.5
0.466667 0.5
0.5 0.5
0.533333 0.5
0.566667 0.5
0.6 0.5
0.633333 0.5
0.666667 0.5
0.7 0.5
0.733333 0.5
0.766667 0.5
0.8 0.5
0.833333 0.5
0.866667 0.5
0.9 0.5
0.933333 0.5
0.966667 0.5
1 0.5
1.03333 0.5
1.06667 0.5
1.1 0.5
1.13333 0.5
1.16667 0.5
1.2 0.5
1.23333 0.5
1.26667 0.5
1.3 0.5
1.33333 0.5
1.36667 0.5
1.4 0.5
1.43333 0.5
1.46667 0.5
1.5 0.5
1.53333 0.5
1.56667 0.5
1.6 0.5
1.63333 0.5
1.66667 0.5
1.7 0.5
1.73333 0.5
1.76667 0.5
1.8 0.5
1.83333 0.5
1.86667 0.5
1.9 0.5
1.93333 0.5
1.96667 0.5
2 0.5 B
0 0.533333 B
0.0333333 0.533333
0.0666667 0.533333
0.1 0.533333
0.133333 0.533333
0.166667 0.533333
0.2 0.533333
0.233333 0.533333
0.266667 0.533333
0.3 0.533333
0.333333 0.533333
0.366667 0.533333
0.4 0.533333
0.433333 0.533333
0.466667 0.533333
0.5 0.533333
0.533333 0.533333
0.566667 0.533333
0.6 0.533333
0.633333 0.533333
0.666667 0.533333
0.7 0.533333
0.733333 0.533333
0.766667 0.533333
0.8 0.533333
0.833333 0.533333
0.866667 0.533333
0.9 0.533333
0.933333 0.533333
0.966667 0.533333
1 0.533333
1.03333 0.533333
1.06667 0.533333
1.1 0.533333
1.13333 0.533333
1.16667 0.533333
1.2 0.533333
1.23333 0.533333
1.26667 0.533333
1.3 0.533333
1.33333 0.533333
1.36667 0.533333
1.4 0.533333
1.43333 0.533333
1.46667 0.533333
1.5 0.533333
1.53333 0.533333
1.56667 0.533333
1.6 0.533333
1.63333 0.533333
1.66667 0.533333
1.7 0.533333
1.73333 0.533333
1.76667 0.533333
1.8 0.533333
1.83333 0.533333
1.86667 0.533333
1.9 0.533333
1.93333 0.533333
1.96667 0.533333
2 0.533333 B
0 0.566667 B
0.0333333 0.566667
0.0666667 0.566667
0.1 0.566667
0.133333 0.566667
0.166667 0.566667
0.2 0.566667
0.233333 0.566667
0.266667 0.566667
0.3 0.566667
0.333333 0.566667
0.366667 0.566667
0.4 0.566667
0.433333 0.566667
0.466667 0.566667
0.5 0.566667
0.533333 0.566667
0.566667 0.566667
0.6 0.566667
0.633333 0.566667
0.666667 0.566667
0.7 0.566667
0.733333 0.566667
0.766667 0.566667
0.8 0.566667
0.833333 0.566667
0.866667 0.566667
0.9 0.566667
0.933333 0.566667
0.966667 0.566667
1 0.566667
1.03333 0.566667
1.06667 0.566667
1.1 0.566667
1.13333 0.566667
1.16667 0.566667
1.2 0.566667
1.23333 0.566667
1.26667 0.566667
1.3 0.566667
1.33333 0.566667
1.36667 0.566667
1.4 0.566667
1.43333 0.566667
1.46667 0.566667
1.5 0.566667
1.53333 0.566667
1.56667 0.566667
1.6 0.566667
1.63333 0.566667
1.66667 0.566667
1.7 0.566667
1.73333 0.566667
1.76667 0.566667
1.8 0.566667
1.83333 0.566667
1.86667 0.566667
1.9 0.566667
1.93333 0.566667
1.96667 0.566667
2 0.566667 B
0 0.6 B
0.0333333 0.6
0.0666667 0.6
0.1 0.6
0.133333 0.6
0.166667 0.6
0.2 0.6
0.233333 0.6
0.266667 0.6
0.3 0.6
0.333333 0.6
0.366667 0.6
0.4 0.6
0.433333 0.6
0.466667 0.6
0.5 0.6
0.533333 0.6
0.566667 0.6
0.6 0.6
0.633333 0.6
0.666667 0.6
0.7 0.6
0.733333 0.6
0.766667 0.6
0.8 0.6
0.833333 0.6
0.866667 0.6
0.9 0.6
0.933333 0.6
0.966667 0.6
1 0.6
1.03333 0.6
1.06667 0.6
1.1 0.6
1.13333 0.6
1.16667 0.6
1.2 0.6
1.23333 0.6
1.26667 0.6
1.3 0.6
1.33333 0.6
1.36667 0.6
1.4 0.6
1.43333 0.6
1.46667 0.6
1.5 0.6
1.53333 0.6
1.56667 0.6
1.6 0.6
1.63333 0.6
1.66667 0.6
1.7 0.6
1.73333 0.6
1.76667 0.6
1.8 0.6
1.83333 0.6
1.86667 0.6
1.9 0.6
1.93333 0.6
1.96667 0.6
2 0.6 B
0 0.633333 B
0.0333333 0.633333
0.0666667 0.633333
0.1 0.633333
0.133333 0.633333
0.166667 0.633333
0.2 0.633333
0.233333 0.633333
0.266667 0.633333
0.3 0.633333
0.333333 0.633333
0.366667 0.633333
0.4 0.633333
0.433333 0.633333
0.466667 0.633333
0.5 0.633333
0.533333 0.633333
0.566667 0.633333
0.6 0.633333
0.633333 0.633333
0.666667 0.633333
0.7 0.633333
0.733333 0.633333
0.766667 0.633333
0.8 0.633333
0.833333 0.633333
0.866667 0.633333
0.9 0.633333
0.933333 0.633333
0.966667 0.633333
1 0.633333
1.03333 0.633333
1.06667 0.633333
1.1 0.633333
1.13333 0.633333
1.16667 0.633333
1.2 0.633333
1.23333 0.633333
1.26667 0.633333
1.3 0.633333
1.33333 0.633333
1.36667 0.633333
1.4 0.633333
1.43333 0.633333
1.46667 0.633333
1.5 0.633333
1.53333 0.633333
1.56667 0.633333
1.6 0.633333
1.63333 0.633333
1.66667 0.633333
1.7 0.633333
1.73333 0.633333
1.76667 0.633333
1.8 0.633333
1.83333 0.633333
1.86667 0.633333
1.9 0.633333
1.93333 0.633333
1.96667 0.633333
2 0.633333 B
0 0.666667 B
0.0333333 0.666667
0.0666667 0.666667
0.1 0.666667
0.133333 0.666667
0.166667 0.666667
0.2 0.666667
0.233333 0.666667
0.266667 0.666667
0.3 0.666667
0.333333 0.666667
0.366667 0.666667
0.4 0.666667
0.433333 0.666667
0.466667 0.666667
0.5 0.666667
0.533333 0.666667
0.566667 0.666667
0.6 0.666667
0.633333 0.666667
0.666667 0.666667
0.7 0.666667
0.733333 0.666667
0.766667 0.666667
0.8 0.666667
0.833333 0.666667
0.866667 0.666667
0.9 0.666667
0.933333 0.666667
0.966667 0.666667
1 0.666667
1.03333 0.666667
1.06667 0.666667
1.1 0.666667
1.13333 0.666667
1.16667 0.666667
1.2 0.666667
1.23333 0.666667
1.26667 0.666667
1.3 0.666667
1.33333 0.666667
1.36667 0.666667
1.4 0.666667
1.43333 0.666667
1.46667 0.666667
1.5 0.666667
1.53333 0.666667
1.56667 0.666667
1.6 0.666667
1.63333 0.666667
1.66667 0.666667
1.7 0.666667
1.73333 0.666667
1.76667 0.666667
1.8 0.666667
1.83333 0.666667
1.86667 0.666667
1.9 0.666667
1.93333 0.666667
1.96667 0.666667
2 0.666667 B
0 0.7 B
0.0333333 0.7
0.0666667 0.7
0.1 0.7
0.133333 0.7
0.166667 0.7
0.2 0.7
0.233333 0.7
0.266667 0.7
0.3 0.7
0.333333 0.7
0.366667 0.7
0.4 0.7
0.433333 0.7
0.466667 0.7
0.5 0.7
0.533333 0.7
0.566667 0.7
0.6 0.7
0.633333 0.7
0.666667 0.7
0.7 0.7
0.733333 0.7
0.766667 0.7
0.8 0.7
0.833333 0.7
0.866667 0.7
0.9 0.7
0.933333 0.7
0.966667 0.7
1 0.7
1.03333 0.7
1.06667 0.7
1.1 0.7
1.13333 0.7
1.16667 0.7
1.2 0.7
1.23333 0.7
1.26667 0.7
1.3 0.7
1.33333 0.7
1.36667 0.7
1.4 0.7
1.43333 0.7
1.46667 0.7
1.5 0.7
1.53333 0.7
1.56667 0.7
1.6 0.7
1.63333 0.7
1.66667 0.7
1.7 0.7
1.73333 0.7
1.76667 0.7
1.8 0.7
1.83333 0.7
1.86667 0.7
1.9 0.7
1.93333 0.7
1.96667 0.7
2 0.7 B
0 0.733333 B
0.0333333 0.733333
0.0666667 0.733333
0.1 0.733333
0.133333 0.733333
0.166667 0.733333
0.2 0.733333
0.233333 0.733333
0.266667 0.733333
0.3 0.733333
0.333333 0.733333
0.366667 0.733333
0.4 0.733333
0.433333 0.733333
0.466667 0.733333
0.5 0.733333
0.533333 0.733333
0.566667 0.733333
0.6 0.733333
0.633333 0.733333
0.666667 0.733333
0.7 0.733333
0.733333 0.733333
0.766667 0.733333
0.8 0.733333
0.833333 0.733333
0.866667 0.733333
0.9 0.733333
0.933333 0.733333
0.966667 0.733333
1 0.733333
1.03333 0.733333
1.06667 0.733333
1.1 0.733333
1.13333 0.733333
1.16667 0.733333
1.2 0.733333
1.23333 0.733333
1.26667 0.733333
1.3 0.733333
1.33333 0.733333
1.36667 0.733333
1.4 0.733333
1.43333 0.733333
1.46667 0.733333
1.5 0.733333
1.53333 0.733333
1.56667 0.733333
1.6 0.733333
1.63333 0.733333
1.66667 0.733333
1.7 0.733333
1.73333 0.733333
1.76667 0.733333
1.8 0.733333
1.83333 0.733333
1.86667 0.733333
1.9 0.733333
1.93333 0.733333
1.96667 0.733333
2 0.733333 B
0 0.766667 B
0.0333333 0.766667
0.0666667 0.766667
0.1 0.766667
0.133333 0.766667
0.166667 0.766667
0.2 0.766667
0.233333 0.766667
0.266667 0.766667
0.3 0.766667
0.333333 0.766667
0.366667 0.766667
0.4 0.766667
0.433333 0.766667
0.466667 0.766667
0.5 0.766667
0.533333 0.766667
0.566667 0.766667
0.6 0.766667
0.633333 0.766667
0.666667 0.766667
0.7 0.766667
0.733333 0.766667
0.766667 0.766667
0.8 0.766667
0.833333 0.766667
0.866667 0.766667
0.9 0.766667
0.933333 0.766667
0.966667 0.766667
1 0.766667
1.03333 0.766667
1.06667 0.766667
1.1 0.766667
1.13333 0.766667
1.16667 0.766667
1.2 0.766667
1.23333 0.766667
1.26667 0.766667
1.3 0.766667
1.33333 0.766667
1.36667 0.766667
1.4 0.766667
1.43333 0.766667
1.46667 0.766667
1.5 0.766667
1.53333 0.766667
1.56667 0.766667
1.6 0.766667
1.63333 0.766667
1.66667 0.766667
1.7 0.766667
1.73333 0.766667
1.76667 0.766667
1.8 0.766667
1.83333 0.766667
1.86667 0.766667
1.9 0.766667
1.93333 0.766667
1.96667 0.766667
2 0.766667 B
0 0.8 B
0.0333333 0.8
0.0666667 0.8
0.1 0.8
0.133333 0.8
0.166667 0.8
0.2 0.8
0.233333 0.8
0.266667 0.8
0.3 0.8
0.333333 0.8
0.366667 0.8
0.4 0.8
0.433333 0.8
0.466667 0.8
0.5 0.8
0.533333 0.8
0.566667 0.8
0.6 0.8
0.633333 0.8
0.666667 0.8
0.7 0.8
0.733333 0.8
0.766667 0.8
0.8 0.8
0.833333 0.8
0.866667 0.8
0.9 0.8
0.933333 0.8
0.966667 0.8
1 0.8
1.03333 0.8
1.06667 0.8
1.1 0.8
1.13333 0.8
1.16667 0.8
1.2 0.8
1.23333 0.8
1.26667 0.8
1.3 0.8
1.33333 0.8
1.36667 0.8
1.4 0.8
1.43333 0.8
1.46667 0.8
1.5 0.8
1.53333 0.8
1.56667 0.8
1.6 0.8
1.63333 0.8
1.66667 0.8
1.7 0.8
1.73333 0.8
1.76667 0.8
1.8 0.8
1.83333 0.8
1.86667 0.8
1.9 0.8
1.93333 0.8
1.96667 0.8
2 0.8 B
0 0.833333 B
0.0333333 0.833333
0.0666667 0.833333
0.1 0.833333
0.133333 0.833333
0.166667 0.833333
0.2 0.833333
0.233333 0.833333
0.266667 0.833333
0.3 0.833333
0.333333 0.833333
0.366667 0.833333
0.4 0.833333
0.433333 0.833333
0.466667 0.833333
0.5 0.833333
0.533333 0.833333
0.566667 0.833333
0.6 0.833333
0.633333 0.833333
0.666667 0.833333
0.7 0.833333
0.733333 0.833333
0.766667 0.833333
0.8 0.833333
0.833333 0.833333
0.866667 0.833333
0.9 0.833333
0.933333 0.833333
0.966667 0.833333
1 0.833333
1.03333 0.833333
1.06667 0.833333
1.1 0.833333
1.13333 0.833333
1.16667 0.833333
1.2 0.833333
1.23333 0.833333
1.26667 0.833333
1.3 0.833333
1.33333 0.833333
1.36667 0.833333
1.4 0.833333
1.43333 0.833333
1.46667 0.833333
1.5 0.833333
1.53333 0.833333
1.56667 0.833333
1.6 0.833333
1.63333 0.833333
1.66667 0.833333
1.7 0.833333
1.73333 0.833333
1.76667 0.833333
1.8 0.833333
1.83333 0.833333
1.86667 0.833333
1.9 0.833333
1.93333 0.833333
1.96667 0.833333
2 0.833333 B
0 0.866667 B
0.0333333 0.866667
0.0666667 0.866667
0.1 0.866667
0.133333 0.866667
0.166667 0.866667
0.2 0.866667
0.233333 0.866667
0.266667 0.866667
0.3 0.866667
0.333333 0.866667
0.366667 0.866667
0.4 0.866667
0.433333 0.866667
0.466667 0.866667
0.5 0.866667
0.533333 0.866667
0.566667 0.866667
0.6 0.866667
0.633333 0.866667
0.666667 0.866667
0.7 0.866667
0.733333 0.866667
0.766667 0.866667
0.8 0.866667
0.833333 0.866667
0.866667 0.866667
0.9 0.866667
0.933333 0.866667
0.966667 0.866667
1 0.866667
1.03333 0.866667
1.06667 0.866667
1.1 0.866667
1.13333 0.866667
1.16667 0.866667
1.2 0.866667
1.23333 0.866667
1.26667 0.866667
1.3 0.866667
1.33333 0.866667
1.36667 0.866667
1.4 0.866667
1.43333 0.866667
1.46667 0.866667
1.5 0.866667
1.53333 0.866667
1.56667 0.866667
1.6 0.866667
1.63333 0.866667
1.66667 0.866667
1.7 0.866667
1.73333 0.866667
1.76667 0.866667
1.8 0.866667
1.83333 0.866667
1.86667 0.866667
1.9 0.866667
1.93333 0.866667
1.96667 0.866667
2 0.866667 B
0 0.9 B
0.0333333 0.9
0.0666667 0.9
0.1 0.9
0.133333 0.9
0.166667 0.9
0.2 0.9
0.233333 0.9
0.266667 0.9
0.3 0.9
0.333333 0.9
0.366667 0.9
0.4 0.9
0.433333 0.9
0.466667 0.9
0.5 0.9
0.533333 0.9
0.566667 0.9
0.6 0.9
0.633333 0.9
0.666667 0.9
0.7 0.9
0.733333 0.9
0.766667 0.9
0.8 0.9
0.833333 0.9
0.866667 0.9
0.9 0.9
0.933333 0.9
0.966667 0.9
1 0.9
1.03333 0.9
1.06667 0.9
1.1 0.9
1.13333 0.9
1.16667 0.9
1.2 0.9
1.23333 0.9
1.26667 0.9
1.3 0.9
1.33333 0.9
1.36667 0.9
1.4 0.9
1.43333 0.9
1.46667 0.9
1.5 0.9
1.53333 0.9
1.56667 0.9
1.6 0.9
1.63333 0.9
1.66667 0.9
1.7 0.9
1.73333 0.9
1.76667 0.9
1.8 0.9
1.83333 0.9
1.86667 0.9
1.9 0.9
1.93333 0.9
1.96667 0.9
2 0.9 B
0 0.933333 B
0.0333333 0.933333
0.0666667 0.933333
0.1 0.933333
0.133333 0.933333
0.166667 0.933333
0.2 0.933333
0.233333 0.933333
0.266667 0.933333
0.3 0.933333
0.333333 0.933333
0.366667 0.933333
0.4 0.933333
0.433333 0.933333
0.466667 0.933333
0.5 0.933333
0.533333 0.933333
0.566667 0.933333
0.6 0.933333
0.633333 0.933333
0.666667 0.933333
0.7 0.933333
0.733333 0.933333
0.766667 0.933333
0.8 0.933333
0.833333 0.933333
0.866667 0.933333
0.9 0.933333
0.933333 0.933333
0.966667 0.933333
1 0.933333
1.03333 0.933333
1.06667 0.933333
1.1 0.933333
1.13333 0.933333
1.16667 0.933333
1.2 0.933333
1.23333 0.933333
1.26667 0.933333
1.3 0.933333
1.33333 0.933333
1.36667 0.933333
1.4 0.933333
1.43333 0.933333
1.46667 0.933333
1.5 0.933333
1.53333 0.933333
1.56667 0.933333
1.6 0.933333
1.63333 0.933333
1.66667 0.933333
1.7 0.933333
1.73333 0.933333
1.76667 0.933333
1.8 0.933333
1.83333 0.933333
1.86667 0.933333
1.9 0.933333
1.93333 0.933333
1.96667 0.933333
2 0.933333 B
0 0.966667 B
0.0333333 0.966667
0.0666667 0.966667
0.1 0.966667
0.133333 0.966667
0.166667 0.966667
0.2 0.966667
0.233333 0.966667
0.266667 0.966667
0.3 0.966667
0.333333 0.966667
0.366667 0.966667
0.4 0.966667
0.433333 0.966667
0.466667 0.966667
0.5 0.966667
0.533333 0.966667
0.566667 0.966667
0.6 0.966667
0.633333 0.966667
0.666667 0.966667
0.7 0.966667
0.733333 0.966667
0.766667 0.966667
0.8 0.966667
0.833333 0.966667
0.866667 0.966667
0.9 0.966667
0.933333 0.966667
0.966667 0.966667
1 0.966667
1.03333 0.966667
1.06667 0.966667
1.1 0.966667
1.13333 0.966667
1.16667 0.966667
1.2 0.966667
1.23333 0.966667
1.26667 0.966667
1.3 0.966667
1.33333 0.966667
1.36667 0.966667
1.4 0.966667
1.43333 0.966667
1.46667 0.966667
1.5 0.966667
1.53333 0.966667
1.56667 0.966667
1.6 0.966667
1.63333 0.966667
1.66667 0.966667
1.7 0.966667
1.73333 0.966667
1.76667 0.966667
1.8 0.966667
1.83333 0.966667
1.86667 0.966667
1.9 0.966667
1.93333 0.966667
1.96667 0.966667
2 0.966667 B
0 1 B
0.0333333 1
0.0666667 1
0.1 1
0.133333 1
0.166667 1
0.2 1
0.233333 1
0.266667 1
0.3 1
0.333333 1
0.366667 1
0.4 1
0.433333 1
0.466667 1
0.5 1
0.533333 1
0.566667 1
0.6 1
0.633333 1
0.666667 1
0.7 1
0.733333 1
0.766667 1
0.8 1
0.833333 1
0.866667 1
0.9 1
0.933333 1
0.966667 1
1 1
1.03333 1 B
1.06667 1 B
1.1 1 B
1.13333 1 B
1.16667 1 B
1.2 1 B
1.23333 1 B
1.26667 1 B
1.3 1 B
1.33333 1 B
1.36667 1 B
1.4 1 B
1.43333 1 B
1.46667 1 B
1.5 1 B
1.53333 1 B
1.56667 1 B
1.6 1 B
1.63333 1 B
1.66667 1 B
1.7 1 B
1.73333 1 B
1.76667 1 B
1.8 1 B
1.83333 1 B
1.86667 1 B
1.9 1 B
1.93333 1 B
1.96667 1 B
2 1 B
0 1.03333 B
0.0333333 1.03333
0.0666667 1.03333
0.1 1.03333
0.133333 1.03333
0.166667 1.03333
0.2 1.03333
0.233333 1.03333
0.266667 1.03333
0.3 1.03333
0.333333 1.03333
0.366667 1.03333
0.4 1.03333
0.433333 1.03333
0.466667 1.03333
0.5 1.03333
0.533333 1.03333
0.566667 1.03333
0.6 1.03333
0.633333 1.03333
0.666667 1.03333
0.7 1.03333
0.733333 1.03333
0.766667 1.03333
0.8 1.03333
0.833333 1.03333
0.866667 1.03333
0.9 1.03333
0.933333 1.03333
0.966667 1.03333
1 1.03333 B
0 1.06667 B
0.0333333 1.06667
0.0666667 1.06667
0.1 1.06667
0.133333 1.06667
0.166667 1.06667
0.2 1.06667
0.233333 1.06667
0.266667 1.06667
0.3 1.06667
0.333333 1.06667
0.366667 1.06667
0.4 1.06667
0.433333 1.06667
0.466667 1.06667
0.5 1.06667
0.533333 1.06667
0.566667 1.06667
0.6 1.06667
0.633333 1.06667
0.666667 1.06667
0.7 1.06667
0.733333 1.06667
0.766667 1.06667
0.8 1.06667
0.833333 1.06667
0.866667 1.06667
0.9 1.06667
0.933333 1.06667
0.966667 1.06667
1 1.06667 B
0 1.1 B
0.0333333 1.1
0.0666667 1.1
0.1 1.1
0.133333 1.1
0.166667 1.1
0.2 1.1
0.233333 1.1
0.266667 1.1
0.3 1.1
0.333333 1.1
0.366667 1.1
0.4 1.1
0.433333 1.1
0.466667 1.1
0.5 1.1
0.533333 1.1
0.566667 1.1
0.6 1.1
0.633333 1.1
0.666667 1.1
0.7 1.1
0.733333 1.1
0.766667 1.1
0.8 1.1
0.833333 1.1
0.866667 1.1
0.9 1.1
0.933333 1.1
0.966667 1.1
1 1.1 B
0 1.13333 B
0.0333333 1.13333
0.0666667 1.13333
0.1 1.13333
0.133333 1.13333
0.166667 1.13333
0.2 1.13333
0.233333 1.13333
0.266667 1.13333
0.3 1.13333
0.333333 1.13333
0.366667 1.13333
0.4 1.13333
0.433333 1.13333
0.466667 1.13333
0.5 1.13333
0.533333 1.13333
0.566667 1.13333
0.6 1.13333
0.633333 1.13333
0.666667 1.13333
0.7 1.13333
0.733333 1.13333
0.766667 1.13333
0.8 1.13333
0.833333 1.13333
0.866667 1.13333
0.9 1.13333
0.933333 1.13333
0.966667 1.13333
1 1.13333 B
0 1.16667 B
0.0333333 1.16667
0.0666667 1.16667
0.1 1.16667
0.133333 1.16667
0.166667 1.16667
0.2 1.16667
0.233333 1.16667
0.266667 1.16667
0.3 1.16667
0.333333 1.16667
0.366667 1.16667
0.4 1.16667
0.433333 1.16667
0.466667 1.16667
0.5 1.16667
0.533333 1.16667
0.566667 1.16667
0.6 1.16667
0.633333 1.16667
0.666667 1.16667
0.7 1.16667
0.733333 1.16667
0.766667 1.16667
0.8 1.16667
0.833333 1.16667
0.866667 1.16667
0.9 1.16667
0.933333 1.16667
0.966667 1.16667
1 1.16667 B
0 1.2 B
0.0333333 1.2
0.0666667 1.2
0.1 1.2
0.133333 1.2
0.166667 1.2
0.2 1.2
0.233333 1.2
0.266667 1.2
0.3 1.2
0.333333 1.2
0.366667 1.2
0.4 1.2
0.433333 1.2
0.466667 1.2
0.5 1.2
0.533333 1.2
0.566667 1.2
0.6 1.2
0.633333 1.2
0.666667 1.2
0.7 1.2
0.733333 1.2
0.766667 1.2
0.8 1.2
0.833333 1.2
0.866667 1.2
0.9 1.2
0.933333 1.2
0.966667 1.2
1 1.2 B
0 1.23333 B
0.0333333 1.23333
0.0666667 1.23333
0.1 1.23333
0.133333 1.23333
0.166667 1.23333
0.2 1.23333
0.233333 1.23333
0.266667 1.23333
0.3 1.23333
0.333333 1.23333
0.366667 1.23333
0.4 1.23333
0.433333 1.23333
0.466667 1.23333
0.5 1.23333
0.533333 1.23333
0.566667 1.23333
0.6 1.23333
0.633333 1.23333
0.666667 1.23333
0.7 1.23333
0.733333 1.23333
0.766667 1.23333
0.8 1.23333
0.833333 1.23333
0.866667 1.23333
0.9 1.23333
0.933333 1.23333
0.966667 1.23333
1 1.23333 B
0 1.26667 B
0.0333333 1.26667
0.0666667 1.26667
0.1 1.26667
0.133333 1.26667
0.166667 1.26667
0.2 1.26667
0.233333 1.26667
0.266667 1.26667
0.3 1.26667
0.333333 1.26667
0.366667 1.26667
0.4 1.26667
0.433333 1.26667
0.466667 1.26667
0.5 1.26667
0.533333 1.26667
0.566667 1.26667
0.6 1.26667
0.633333 1.26667
0.666667 1.26667
0.7 1.26667
0.733333 1.26667
0.766667 1.26667
0.8 1.26667
0.833333 1.26667
0.866667 1.26667
0.9 1.26667
0.933333 1.26667
0.966667 1.26667
1 1.26667 B
0 1.3 B
0.0333333 1.3
0.0666667 1.3
0.1 1.3
0.133333 1.3
0.166667 1.3
0.2 1.3
0.233333 1.3
0.266667 1.3
0.3 1.3
0.333333 1.3
0.366667 1.3
0.4 1.3
0.433333 1.3
0.466667 1.3
0.5 1.3
0.533333 1.3
0.566667 1.3
0.6 1.3
0.633333 1.3
0.666667 1.3
0.7 1.3
0.733333 1.3
0.766667 1.3
0.8 1.3
0.833333 1.3
0.866667 1.3
0.9 1.3
0.933333 1.3
0.966667 1.3
1 1.3 B
0 1.33333 B
0.0333333 1.33333
0.0666667 1.33333
0.1 1.33333
0.133333 1.33333
0.166667 1.33333
0.2 1.33333
0.233333 1.33333
0.266667 1.33333
0.3 1.33333
0.333333 1.33333
0.366667 1.33333
0.4 1.33333
0.433333 1.33333
0.466667 1.33333
0.5 1.33333
0.533333 1.33333
0.566667 1.33333
0.6 1.33333
0.633333 1.33333
0.666667 1.33333
0.7 1.33333
0.733333 1.33333
0.766667 1.33333
0.8 1.33333
0.833333 1.33333
0.866667 1.33333
0.9 1.33333
0.933333 1.33333
0.966667 1.33333
1 1.33333 B
0 1.36667 B
0.0333333 1.36667
0.0666667 1.36667
0.1 1.36667
0.133333 1.36667
0.166667 1.36667
0.2 1.36667
0.233333 1.36667
0.266667 1.36667
0.3 1.36667
0.333333 1.36667
0.366667 1.36667
0.4 1.36667
0.433333 1.36667
0.466667 1.36667
0.5 1.36667
0.533333 1.36667
0.566667 1.36667
0.6 1.36667
0.633333 1.36667
0.666667 1.36667
0.7 1.36667
0.733333 1.36667
0.766667 1.36667
0.8 1.36667
0.833333 1.36667
0.866667 1.36667
0.9 1.36667
0.933333 1.36667
0.966667 1.36667
1 1.36667 B
0 1.4 B
0.0333333 1.4
0.0666667 1.4
0.1 1.4
0.133333 1.4
0.166667 1.4
0.2 1.4
0.233333 1.4
0.266667 1.4
0.3 1.4
0.333333 1.4
0.366667 1.4
0.4 1.4
0.433333 1.4
0.466667 1.4
0.5 1.4
0.533333 1.4
0.566667 1.4
0.6 1.4
0.633333 1.4
0.666667 1.4
0.7 1.4
0.733333 1.4
0.766667 1.4
0.8 1.4
0.833333 1.4
0.866667 1.4
0.9 1.4
0.933333 1.4
0.966667 1.4
1 1.4 B
0 1.43333 B
0.0333333 1.43333
0.0666667 1.43333
0.1 1.43333
0.133333 1.43333
0.166667 1.43333
0.2 1.43333
0.233333 1.43333
0.266667 1.43333
0.3 1.43333
0.333333 1.43333
0.366667 1.43333
0.4 1.43333
0.433333 1.43333
0.466667 1.43333
0.5 1.43333
0.533333 1.43333
0.566667 1.43333
0.6 1.43333
0.633333 1.43333
0.666667 1.43333
0.7 1.43333
0.733333 1.43333
0.766667 1.43333
0.8 1.43333
0.833333 1.43333
0.866667 1.43333
0.9 1.43333
0.933333 1.43333
0.966667 1.43333
1 1.43333 B
0 1.46667 B
0.0333333 1.46667
0.0666667 1.46667
0.1 1.46667
0.133333 1.46667
0.166667 1.46667
0.2 1.46667
0.233333 1.46667
0.266667 1.46667
0.3 1.46667
0.333333 1.46667
0.366667 1.46667
0.4 1.46667
0.433333 1.46667
0.466667 1.46667
0.5 1.46667
0.533333 1.46667
0.566667 1.46667
0.6 1.46667
0.633333 1.46667
0.666667 1.46667
0.7 1.46667
0.733333 1.46667
0.766667 1.46667
0.8 1.46667
0.833333 1.46667
0.866667 1.46667
0.9 1.46667
0.933333 1.46667
0.966667 1.46667
1 1.46667 B
0 1.5 B
0.0333333 1.5
0.0666667 1.5
0.1 1.5
0.133333 1.5
0.166667 1.5
0.2 1.5
0.233333 1.5
0.266667 1.5
0.3 1.5
0.333333 1.5
0.366667 1.5
0.4 1.5
0.433333 1.5
0.466667 1.5
0.5 1.5
0.533333 1.5
0.566667 1.5
0.6 1.5
0.633333 1.5
0.666667 1.5
0.7 1.5
0.733333 1.5
0.766667 1.5
0.8 1.5
0.833333 1.5
0.866667 1.5
0.9 1.5
0.933333 1.5
0.966667 1.5
1 1.5 B
0 1.53333 B
0.0333333 1.53333
0.0666667 1.53333
0.1 1.53333
0.133333 1.53333
0.166667 1.53333
0.2 1.53333
0.233333 1.53333
0.266667 1.53333
0.3 1.53333
0.333333 1.53333
0.366667 1.53333
0.4 1.53333
0.433333 1.53333
0.466667 1.53333
0.5 1.53333
0.533333 1.53333
0.566667 1.53333
0.6 1.53333
0.633333 1.53333
0.666667 1.53333
0.7 1.53333
0.733333 1.53333
0.766667 1.53333
0.8 1.53333
0.833333 1.53333
0.866667 1.53333
0.9 1.53333
0.933333 1.53333
0.966667 1.53333
1 1.53333 B
0 1.56667 B
0.0333333 1.56667
0.0666667 1.56667
0.1 1.56667
0.133333 1.56667
0.166667 1.56667
0.2 1.56667
0.233333 1.56667
0.266667 1.56667
0.3 1.56667
0.333333 1.56667
0.366667 1.56667
0.4 1.56667
0.433333 1.56667
0.466667 1.56667
0.5 1.56667
0.533333 1.56667
0.566667 1.56667
0.6 1.56667
0.633333 1.56667
0.666667 1.56667
0.7 1.56667
0.733333 1.56667
0.766667 1.56667
0.8 1.56667
0.833333 1.56667
0.866667 1.56667
0.9 1.56667
0.933333 1.56667
0.966667 1.56667
1 1.56667 B
0 1.6 B
0.0333333 1.6
0.0666667 1.6
0.1 1.6
0.133333 1.6
0.166667 1.6
0.2 1.6
0.233333 1.6
0.266667 1.6
0.3 1.6
0.333333 1.6
0.366667 1.6
0.4 1.6
0.433333 1.6
0.466667 1.6
0.5 1.6
0.533333 1.6
0.566667 1.6
0.6 1.6
0.633333 1.6
0.666667 1.6
0.7 1.6
0.733333 1.6
0.766667 1.6
0.8 1.6
0.833333 1.6
0.866667 1.6
0.9 1.6
0.933333 1.6
0.966667 1.6
1 1.6 B
0 1.63333 B
0.0333333 1.63333
0.0666667 1.63333
0.1 1.63333
0.133333 1.63333
0.166667 1.63333
0.2 1.63333
0.233333 1.63333
0.266667 1.63333
0.3 1.63333
0.333333 1.63333
0.366667 1.63333
0.4 1.63333
0.433333 1.63333
0.466667 1.63333
0.5 1.63333
0.533333 1.63333
0.566667 1.63333
0.6 1.63333
0.633333 1.63333
0.666667 1.63333
0.7 1.63333
0.733333 1.63333
0.766667 1.63333
0.8 1.63333
0.833333 1.63333
0.866667 1.63333
0.9 1.63333
0.933333 1.63333
0.966667 1.63333
1 1.63333 B
0 1.66667 B
0.0333333 1.66667
0.0666667 1.66667
0.1 1.66667
0.133333 1.66667
0.166667 1.66667
0.2 1.66667
0.233333 1.66667
0.266667 1.66667
0.3 1.66667
0.333333 1.66667
0.366667 1.66667
0.4 1.66667
0.433333 1.66667
0.466667 1.66667
0.5 1.66667
0.533333 1.66667
0.566667 1.66667
0.6 1.66667
0.633333 1.66667
0.666667 1.66667
0.7 1.66667
0.733333 1.66667
0.766667 1.66667
0.8 1.66667
0.833333 1.66667
0.866667 1.66667
0.9 1.66667
0.933333 1.66667
0.966667 1.66667
1 1.66667 B
0 1.7 B
0.0333333 1.7
0.0666667 1.7
0.1 1.7
0.133333 1.7
0.166667 1.7
0.2 1.7
0.233333 1.7
0.266667 1.7
0.3 1.7
0.333333 1.7
0.366667 1.7
0.4 1.7
0.433333 1.7
0.466667 1.7
0.5 1.7
0.533333 1.7
0.566667 1.7
0.6 1.7
0.633333 1.7
0.666667 1.7
0.7 1.7
0.733333 1.7
0.766667 1.7
0.8 1.7
0.833333 1.7
0.866667 1.7
0.9 1.7
0.933333 1.7
0.966667 1.7
1 1.7 B
0 1.73333 B
0.0333333 1.73333
0.0666667 1.73333
0.1 1.73333
0.133333 1.73333
0.166667 1.73333
0.2 1.73333
0.233333 1.73333
0.266667 1.73333
0.3 1.73333
0.333333 1.73333
0.366667 1.73333
0.4 1.73333
0.433333 1.73333
0.466667 1.73333
0.5 1.73333
0.533333 1.73333
0.566667 1.73333
0.6 1.73333
0.633333 1.73333
0.666667 1.73333
0.7 1.73333
0.733333 1.73333
0.766667 1.73333
0.8 1.73333
0.833333 1.73333
0.866667 1.73333
0.9 1.73333
0.933333 1.73333
0.966667 1.73333
1 1.73333 B
0 1.76667 B
0.0333333 1.76667
0.0666667 1.76667
0.1 1.76667
0.133333 1.76667
0.166667 1.76667
0.2 1.76667
0.233333 1.76667
0.266667 1.76667
0.3 1.76667
0.333333 1.76667
0.366667 1.76667
0.4 1.76667
0.433333 1.76667
0.466667 1.76667
0.5 1.76667
0.533333 1.76667
0.566667 1.76667
0.6 1.76667
0.633333 1.76667
0.666667 1.76667
0.7 1.76667
0.733333 1.76667
0.766667 1.76667
0.8 1.76667
0.833333 1.76667
0.866667 1.76667
0.9 1.76667
0.933333 1.76667
0.966667 1.76667
1 1.76667 B
0 1.8 B
0.0333333 1.8
0.0666667 1.8
0.1 1.8
0.133333 1.8
0.166667 1.8
0.2 1.8
0.233333 1.8
0.266667 1.8
0.3 1.8
0.333333 1.8
0.366667 1.8
0.4 1.8
0.433333 1.8
0.466667 1.8
0.5 1.8
0.533333 1.8
0.566667 1.8
0.6 1.8
0.633333 1.8
0.666667 1.8
0.7 1.8
0.733333 1.8
0.766667 1.8
0.8 1.8
0.833333 1.8
0.866667 1.8
0.9 1.8
0.933333 1.8
0.966667 1.8
1 1.8 B
0 1.83333 B
0.0333333 1.83333
0.0666667 1.83333
0.1 1.83333
0.133333 1.83333
0.166667 1.83333
0.2 1.83333
0.233333 1.83333
0.266667 1.83333
0.3 1.83333
0.333333 1.83333
0.366667 1.83333
0.4 1.83333
0.433333 1.83333
0.466667 1.83333
0.5 1.83333
0.533333 1.83333
0.566667 1.83333
0.6 1.83333
0.633333 1.83333
0.666667 1.83333
0.7 1.83333
0.733333 1.83333
0.766667 1.83333
0.8 1.83333
0.833333 1.83333
0.866667 1.83333
0.9 1.83333
0.933333 1.83333
0.966667 1.83333
1 1.83333 B
0 1.86667 B
0.0333333 1.86667
0.0666667 1.86667
0.1 1.86667
0.133333 1.86667
0.166667 1.86667
0.2 1.86667
0.233333 1.86667
0.266667 1.86667
0.3 1.86667
0.333333 1.86667
0.366667 1.86667
0.4 1.86667
0.433333 1.86667
0.466667 1.86667
0.5 1.86667
0.533333 1.86667
0.566667 1.86667
0.6 1.86667
0.633333 1.86667
0.666667 1.86667
0.7 1.86667
0.733333 1.86667
0.766667 1.86667
0.8 1.86667
0.833333 1.86667
0.866667 1.86667
0.9 1.86667
0.933333 1.86667
0.966667 1.86667
1 1.86667 B
0 1.9 B
0.0333333 1.9
0.0666667 1.9
0.1 1.9
0.133333 1.9
0.166667 1.9
0.2 1.9
0.233333 1.9
0.266667 1.9
0.3 1.9
0.333333 1.9
0.366667 1.9
0.4 1.9
0.433333 1.9
0.466667 1.9
0.5 1.9
0.533333 1.9
0.566667 1.9
0.6 1.9
0.633333 1.9
0.666667 1.9
0.7 1.9
0.733333 1.9
0.766667 1.9
0.8 1.9
0.833333 1.9
0.866667 1.9
0.9 1.9
0.933333 1.9
0.966667 1.9
1 1.9 B
0 1.93333 B
0.0333333 1.93333
0.0666667 1.93333
0.1 1.93333
0.133333 1.93333
0.166667 1.93333
0.2 1.93333
0.233333 1.93333
0.266667 1.93333
0.3 1.93333
0.333333 1.93333
0.366667 1.93333
0.4 1.93333
0.433333 1.93333
0.466667 1.93333
0.5 1.93333
0.533333 1.93333
0.566667 1.93333
0.6 1.93333
0.633333 1.93333
0.666667 1.93333
0.7 1.93333
0.733333 1.93333
0.766667 1.93333
0.8 1.93333
0.833333 1.93333
0.866667 1.93333
0.9 1.93333
0.933333 1.93333
0.966667 1.93333
1 1.93333 B
0 1.96667 B
0.0333333 1.96667
0.0666667 1.96667
0.1 1.96667
0.133333 1.96667
0.166667 1.96667
0.2 1.96667
0.233333 1.96667
0.266667 1.96667
0.3 1.96667
0.333333 1.96667
0.366667 1.96667
0.4 1.96667
0.433333 1.96667
0.466667 1.96667
0.5 1.96667
0.533333 1.96667
0.566667 1.96667
0.6 1.96667
0.633333 1.96667
0.666667 1.96667
0.7 1.96667
0.733333 1.96667
0.766667 1.96667
0.8 1.96667
0.833333 1.96667
0.866667 1.96667
0.9 1.96667
0.933333 1.96667
0.966667 1.96667
1 1.96667 B
0 2 B
0.0333333 2 B
0.0666667 2 B
0.1 2 B
0.133333 2 B
0.166667 2 B
0.2 2 B
0.233333 2 B
0.266667 2 B
0.3 2 B
0.333333 2 B
0.366667 2 B
0.4 2 B
0.433333 2 B
0.466667 2 B
0.5 2 B
0.533333 2 B
0.566667 2 B
0.6 2 B
0.633333 2 B
0.666667 2 B
0.7 2 B
0.733333 2 B
0.766667 2 B
0.8 2 B
0.833333 2 B
0.866667 2 B
0.9 2 B
0.933333 2 B
0.966667 2 B
1 2 B
